Provlima_1/Erotima_3/a/quartus_project/pr1_er3/simulation/qsim/pr1_er3.msim.vcd
$comment
	File created using the following command:
		vcd file pr1_er3.msim.vcd -direction
$end
$date
	Wed Apr 24 01:13:38 2024
$end
$version
	ModelSim Version 10.5b
$end
$timescale
	1ps
$end

$scope module pr1_er3_vlg_vec_tst $end
$var reg 1 ! x1 $end
$var reg 1 " x2 $end
$var reg 1 # x3 $end
$var reg 1 $ x4 $end
$var reg 1 % x5 $end
$var wire 1 & func $end

$scope module i1 $end
$var wire 1 ' gnd $end
$var wire 1 ( vcc $end
$var wire 1 ) unknown $end
$var tri1 1 * devclrn $end
$var tri1 1 + devpor $end
$var tri1 1 , devoe $end
$var wire 1 - ~QUARTUS_CREATED_GND~I_combout $end
$var wire 1 . ~QUARTUS_CREATED_UNVM~~busy $end
$var wire 1 / ~QUARTUS_CREATED_ADC1~~eoc $end
$var wire 1 0 func~output_o $end
$var wire 1 1 x5~input_o $end
$var wire 1 2 x3~input_o $end
$var wire 1 3 x2~input_o $end
$var wire 1 4 x1~input_o $end
$var wire 1 5 x4~input_o $end
$var wire 1 6 inst10~0_combout $end
$var wire 1 7 inst10~1_combout $end
$upscope $end
$upscope $end
$enddefinitions $end
#0
$dumpvars
0!
0"
0#
0$
0%
1&
0'
1(
x)
1*
1+
1,
0-
z.
z/
10
01
02
03
04
05
06
17
$end
#10000
1%
11
07
00
0&
#20000
1$
0%
01
15
17
10
1&
#30000
1%
11
07
00
0&
#40000
1#
0$
0%
01
05
12
17
10
1&
#50000
1%
11
07
00
0&
#60000
1$
0%
01
15
16
17
10
1&
07
00
0&
#70000
1%
11
17
10
1&
#80000
1"
0#
0$
0%
01
05
02
13
06
#90000
1%
11
07
00
0&
#100000
1$
0%
01
15
17
10
1&
#110000
1%
11
07
00
0&
#120000
1#
0$
0%
01
05
12
17
10
1&
#130000
1%
11
07
00
0&
#140000
1$
0%
01
15
16
17
10
1&
07
00
0&
#150000
1%
11
#160000
1!
0"
0#
0$
0%
01
05
02
03
14
17
10
1&
#170000
1%
11
07
00
0&
#180000
1$
0%
01
15
17
10
1&
#190000
1%
11
07
00
0&
#200000
1#
0$
0%
01
05
12
06
17
10
1&
#210000
1%
11
07
00
0&
#220000
1$
0%
01
15
16
17
10
1&
07
00
0&
#230000
1%
11
17
10
1&
#240000
1"
0#
0$
0%
01
05
02
13
#250000
1%
11
#260000
1$
0%
01
15
#270000
1%
11
#280000
1#
0$
0%
01
05
12
06
07
00
0&
17
10
1&
#290000
1%
11
07
00
0&
#300000
1$
0%
01
15
16
17
10
1&
07
00
0&
#310000
1%
11
