Provlima_1/Erotima_2/a/quartus_project/pr1_er2/simulation/qsim/pr1_er2.msim.vcd
$comment
	File created using the following command:
		vcd file pr1_er2.msim.vcd -direction
$end
$date
	Tue Apr 23 22:41:29 2024
$end
$version
	ModelSim Version 10.5b
$end
$timescale
	1ps
$end

$scope module pr1_er2_vhd_vec_tst $end
$var wire 1 ! f $end
$var wire 1 " x1 $end
$var wire 1 # x2 $end
$var wire 1 $ x3 $end
$var wire 1 % x4 $end
$var wire 1 & x5 $end

$scope module i1 $end
$var wire 1 ' gnd $end
$var wire 1 ( vcc $end
$var wire 1 ) unknown $end
$var wire 1 * devoe $end
$var wire 1 + devclrn $end
$var wire 1 , devpor $end
$var wire 1 - ww_devoe $end
$var wire 1 . ww_devclrn $end
$var wire 1 / ww_devpor $end
$var wire 1 0 ww_x1 $end
$var wire 1 1 ww_x2 $end
$var wire 1 2 ww_x3 $end
$var wire 1 3 ww_x4 $end
$var wire 1 4 ww_x5 $end
$var wire 1 5 ww_f $end
$var wire 1 6 \~QUARTUS_CREATED_ADC1~_CHSEL_bus\ [4] $end
$var wire 1 7 \~QUARTUS_CREATED_ADC1~_CHSEL_bus\ [3] $end
$var wire 1 8 \~QUARTUS_CREATED_ADC1~_CHSEL_bus\ [2] $end
$var wire 1 9 \~QUARTUS_CREATED_ADC1~_CHSEL_bus\ [1] $end
$var wire 1 : \~QUARTUS_CREATED_ADC1~_CHSEL_bus\ [0] $end
$var wire 1 ; \~QUARTUS_CREATED_GND~I_combout\ $end
$var wire 1 < \~QUARTUS_CREATED_UNVM~~busy\ $end
$var wire 1 = \~QUARTUS_CREATED_ADC1~~eoc\ $end
$var wire 1 > \f~output_o\ $end
$var wire 1 ? \x5~input_o\ $end
$var wire 1 @ \x4~input_o\ $end
$var wire 1 A \x3~input_o\ $end
$var wire 1 B \x1~input_o\ $end
$var wire 1 C \x2~input_o\ $end
$var wire 1 D \I4|out1~0_combout\ $end
$var wire 1 E \I4|out1~1_combout\ $end
$upscope $end
$upscope $end
$enddefinitions $end
#0
$dumpvars
1!
0"
0#
0$
0%
0&
0'
1(
x)
1*
1+
1,
1-
1.
1/
00
01
02
03
04
15
0;
z<
z=
1>
0?
0@
0A
0B
0C
0D
1E
06
07
08
09
0:
$end
#10000
1&
14
1?
0E
0>
05
0!
#20000
0&
1%
04
13
1@
0?
1E
1>
15
1!
#30000
1&
14
1?
0E
0>
05
0!
#40000
0&
0%
1$
04
03
12
1A
0@
0?
1E
1>
15
1!
#50000
1&
14
1?
0E
0>
05
0!
#60000
0&
1%
04
13
1@
0?
#70000
1&
14
1?
1E
1>
15
1!
#80000
0&
0%
0$
1#
04
03
02
11
1C
0A
0@
0?
#90000
1&
14
1?
0E
0>
05
0!
#100000
0&
1%
04
13
1@
0?
1E
1>
15
1!
#110000
1&
14
1?
0E
0>
05
0!
#120000
0&
0%
1$
04
03
12
1A
0@
0?
1D
1E
1>
15
1!
#130000
1&
14
1?
0E
0>
05
0!
#140000
0&
1%
04
13
1@
0?
#150000
1&
14
1?
#160000
0&
0%
0$
0#
1"
04
03
02
01
10
1B
0C
0A
0@
0?
1E
0D
1>
15
1!
#170000
1&
14
1?
0E
0>
05
0!
#180000
0&
1%
04
13
1@
0?
1E
1>
15
1!
#190000
1&
14
1?
0E
0>
05
0!
#200000
0&
0%
1$
04
03
12
1A
0@
0?
1E
1>
15
1!
#210000
1&
14
1?
0E
0>
05
0!
#220000
0&
1%
04
13
1@
0?
#230000
1&
14
1?
1E
1>
15
1!
#240000
0&
0%
0$
1#
04
03
02
11
1C
0A
0@
0?
1D
#250000
1&
14
1?
#260000
0&
1%
04
13
1@
0?
#270000
1&
14
1?
#280000
0&
0%
1$
04
03
12
1A
0@
0?
#290000
1&
14
1?
0E
0>
05
0!
#300000
0&
1%
04
13
1@
0?
#310000
1&
14
1?
