Provlima_2/Erotima_2/quartus_project/pr2_er2/simulation/qsim/pr2_er2.msim.vcd
$comment
	File created using the following command:
		vcd file pr2_er2.msim.vcd -direction
$end
$date
	Wed Apr 24 11:14:05 2024
$end
$version
	ModelSim Version 10.5b
$end
$timescale
	1ps
$end

$scope module pr2_er2_vhd_vec_tst $end
$var wire 1 ! f $end
$var wire 1 " x1 $end
$var wire 1 # x2 $end
$var wire 1 $ x3 $end
$var wire 1 % x4 $end

$scope module i1 $end
$var wire 1 & gnd $end
$var wire 1 ' vcc $end
$var wire 1 ( unknown $end
$var wire 1 ) devoe $end
$var wire 1 * devclrn $end
$var wire 1 + devpor $end
$var wire 1 , ww_devoe $end
$var wire 1 - ww_devclrn $end
$var wire 1 . ww_devpor $end
$var wire 1 / ww_x1 $end
$var wire 1 0 ww_x2 $end
$var wire 1 1 ww_x3 $end
$var wire 1 2 ww_x4 $end
$var wire 1 3 ww_f $end
$var wire 1 4 \~QUARTUS_CREATED_ADC1~_CHSEL_bus\ [4] $end
$var wire 1 5 \~QUARTUS_CREATED_ADC1~_CHSEL_bus\ [3] $end
$var wire 1 6 \~QUARTUS_CREATED_ADC1~_CHSEL_bus\ [2] $end
$var wire 1 7 \~QUARTUS_CREATED_ADC1~_CHSEL_bus\ [1] $end
$var wire 1 8 \~QUARTUS_CREATED_ADC1~_CHSEL_bus\ [0] $end
$var wire 1 9 \~QUARTUS_CREATED_GND~I_combout\ $end
$var wire 1 : \~QUARTUS_CREATED_UNVM~~busy\ $end
$var wire 1 ; \~QUARTUS_CREATED_ADC1~~eoc\ $end
$var wire 1 < \f~output_o\ $end
$var wire 1 = \x1~input_o\ $end
$var wire 1 > \x4~input_o\ $end
$var wire 1 ? \x2~input_o\ $end
$var wire 1 @ \x3~input_o\ $end
$var wire 1 A \f~0_combout\ $end
$upscope $end
$upscope $end
$enddefinitions $end
#0
$dumpvars
0!
0"
0#
0$
0%
0&
1'
x(
1)
1*
1+
1,
1-
1.
0/
00
01
02
03
09
z:
z;
0<
0=
0>
0?
0@
0A
04
05
06
07
08
$end
#10000
1%
12
1>
1A
1<
13
1!
#20000
0%
1$
02
11
1@
0>
#30000
1%
12
1>
0A
0<
03
0!
#40000
0%
0$
1#
02
01
10
1?
0@
0>
#50000
1%
12
1>
1A
1<
13
1!
#60000
0%
1$
02
11
1@
0>
#70000
1%
12
1>
0A
0<
03
0!
#80000
0%
0$
0#
1"
02
01
00
1/
1=
0?
0@
0>
1A
1<
13
1!
#90000
1%
12
1>
0A
0<
03
0!
#100000
0%
1$
02
11
1@
0>
#110000
1%
12
1>
1A
1<
13
1!
#120000
0%
0$
1#
02
01
10
1?
0@
0>
#130000
1%
12
1>
0A
0<
03
0!
#140000
0%
1$
02
11
1@
0>
1A
1<
13
1!
#150000
1%
12
1>
